{"count": 289, "next": "https://ll.thespacedevs.com/2.0.0/launch/upcoming/?limit=10&offset=10", "previous": null, "results": [{"id": "e53eecd6-184d-440a-955a-70fe0fdccbd6", "url": "https://ll.thespacedevs.com/2.0.0/launch/e53eecd6-184d-440a-955a-70fe0fdccbd6/", "launch_library_id": null, "slug": "falcon-9-block-5-dragon-crs-2-spx-28", "name": "Falcon 9 Block 5 | Dragon CRS-2 SpX-28", "status": {"id": 1, "name": "Go"}, "net": "2023-06-03T16:35:00Z", "window_end": "2023-06-03T16:35:00Z", "window_start": "2023-06-03T16:35:00Z", "inhold": false, "tbdtime": false, "tbddate": false, "probability": 30, "holdreason": "", "failreason": "", "hashtag": null, "launch_service_provider": {"id": 121, "url": "https://ll.thespacedevs.com/2.0.0/agencies/121/", "name": "SpaceX", "type": "Commercial"}, "rocket": {"id": 7460, "configuration": {"id": 164, "launch_library_id": 188, "url": "https://ll.thespacedevs.com/2.0.0/config/launcher/164/", "name": "Falcon 9", "family": "Falcon", "full_name": "Falcon 9 Block 5", "variant": "Block 5"}}, "mission": {"id": 5858, "launch_library_id": null, "name": "Dragon CRS-2 SpX-28", "description": "28th commercial resupply services mission to the International Space Station operated by SpaceX. The flight will be conducted under the second Commercial Resupply Services contract with NASA.\r\n\r\nCargo Dragon 2 brings supplies and payloads, including critical materials to directly support science and research investigations that occur onboard the orbiting laboratory.", "launch_designator": null, "type": "Resupply", "orbit": {"id": 8, "name": "Low Earth Orbit", "abbrev": "LEO"}}, "pad": {"id": 87, "url": "https://ll.thespacedevs.com/2.0.0/pad/87/", "agency_id": 121, "name": "Launch Complex 39A", "info_url": null, "wiki_url": "https://en.wikipedia.org/wiki/Kennedy_Space_Center_Launch_Complex_39#Launch_Pad_39A", "map_url": "https://www.google.com/maps?q=28.60822681,-80.60428186", "latitude": "28.60822681", "longitude": "-80.60428186", "location": {"id": 27, "url": "https://ll.thespacedevs.com/2.0.0/location/27/", "name": "Kennedy Space Center, FL, USA", "country_code": "USA", "map_image": "https://spacelaunchnow-prod-east.nyc3.digitaloceanspaces.com/media/launch_images/location_27_20200803142447.jpg", "total_launch_count": 219, "total_landing_count": 0}, "map_image": "https://spacelaunchnow-prod-east.nyc3.digitaloceanspaces.com/media/launch_images/pad_87_20200803143537.jpg", "total_launch_count": 161}, "webcast_live": false, "image": "https://spacelaunchnow-prod-east.nyc3.digitaloceanspaces.com/media/launch_images/falcon2520925_image_20210922155355.jpeg", "infographic": null, "program": [{"id": 11, "url": "https://ll.thespacedevs.com/2.0.0/program/11/", "name": "Commercial Resupply Services", "description": "Commercial Resupply Services (CRS) are a series of flights awarded by NASA for the delivery of cargo and supplies to the International Space Station.The first CRS contracts were signed in 2008 and awarded $1.6 billion to SpaceX for twelve cargo Dragon and $1.9 billion to Orbital Sciences for eight Cygnus flights, covering deliveries to 2016. The Falcon 9 and Antares rockets were also developed under the CRS program to deliver cargo spacecraft to the ISS.", "agencies": [{"id": 44, "url": "https://ll.thespacedevs.com/2.0.0/agencies/44/", "name": "National Aeronautics and Space Administration", "type": "Government"}, {"id": 257, "url": "https://ll.thespacedevs.com/2.0.0/agencies/257/", "name": "Northrop Grumman Space Systems", "type": "Commercial"}, {"id": 1020, "url": "https://ll.thespacedevs.com/2.0.0/agencies/1020/", "name": "Sierra Nevada Corporation", "type": "Commercial"}, {"id": 121, "url": "https://ll.thespacedevs.com/2.0.0/agencies/121/", "name": "SpaceX", "type": "Commercial"}], "image_url": "https://spacelaunchnow-prod-east.nyc3.digitaloceanspaces.com/media/program_images/commercial2520_program_20201129212219.png", "start_date": "2008-12-23T00:00:00Z", "end_date": null, "info_url": null, "wiki_url": "https://en.wikipedia.org/wiki/Commercial_Resupply_Services#Commercial_Resupply_Services"}, {"id": 17, "url": "https://ll.thespacedevs.com/2.0.0/program/17/", "name": "International Space Station", "description": "The International Space Station programme is tied together by a complex set of legal, political and financial agreements between the sixteen nations involved in the project, governing ownership of the various components, rights to crewing and utilization, and responsibilities for crew rotation and resupply of the International Space Station. It was conceived in 1984 by President Ronald Reagan, during the Space Station Freedom project as it was originally called.", "agencies": [{"id": 16, "url": "https://ll.thespacedevs.com/2.0.0/agencies/16/", "name": "Canadian Space Agency", "type": "Government"}, {"id": 27, "url": "https://ll.thespacedevs.com/2.0.0/agencies/27/", "name": "European Space Agency", "type": "Multinational"}, {"id": 37, "url": "https://ll.thespacedevs.com/2.0.0/agencies/37/", "name": "Japan Aerospace Exploration Agency", "type": "Government"}, {"id": 44, "url": "https://ll.thespacedevs.com/2.0.0/agencies/44/", "name": "National Aeronautics and Space Administration", "type": "Government"}, {"id": 63, "url": "https://ll.thespacedevs.com/2.0.0/agencies/63/", "name": "Russian Federal Space Agency (ROSCOSMOS)", "type": "Government"}], "image_url": "https://spacelaunchnow-prod-east.nyc3.digitaloceanspaces.com/media/program_images/international2_program_20201129184745.png", "start_date": "1998-11-20T06:40:00Z", "end_date": null, "info_url": "https://www.nasa.gov/mission_pages/station/main/index.html", "wiki_url": "https://en.wikipedia.org/wiki/International_Space_Station_programme"}]}, {"id": "066250e1-a3fe-4483-88d7-8b80c7251a5f", "url": "https://ll.thespacedevs.com/2.0.0/launch/066250e1-a3fe-4483-88d7-8b80c7251a5f/", "launch_library_id": null, "slug": "falcon-9-block-5-starlink-group-6-4", "name": "Falcon 9 Block 5 | Starlink Group 6-4", "status": {"id": 2, "name": "TBD"}, "net": "2023-06-04T09:58:00Z", "window_end": "2023-06-04T09:58:00Z", "window_start": "2023-06-04T09:58:00Z", "inhold": false, "tbdtime": false, "tbddate": false, "probability": 30, "holdreason": "", "failreason": "", "hashtag": null, "launch_service_provider": {"id": 121, "url": "https://ll.thespacedevs.com/2.0.0/agencies/121/", "name": "SpaceX", "type": "Commercial"}, "rocket": {"id": 7841, "configuration": {"id": 164, "launch_library_id": 188, "url": "https://ll.thespacedevs.com/2.0.0/config/launcher/164/", "name": "Falcon 9", "family": "Falcon", "full_name": "Falcon 9 Block 5", "variant": "Block 5"}}, "mission": {"id": 6348, "launch_library_id": null, "name": "Starlink Group 6-4", "description": "A batch of satellites for the Starlink mega-constellation - SpaceX's project for space-based Internet communication system.", "launch_designator": null, "type": "Communications", "orbit": {"id": 8, "name": "Low Earth Orbit", "abbrev": "LEO"}}, "pad": {"id": 80, "url": "https://ll.thespacedevs.com/2.0.0/pad/80/", "agency_id": 121, "name": "Space Launch Complex 40", "info_url": null, "wiki_url": "https://en.wikipedia.org/wiki/Cape_Canaveral_Air_Force_Station_Space_Launch_Complex_40", "map_url": "https://www.google.com/maps?q=28.56194122,-80.57735736", "latitude": "28.56194122", "longitude": "-80.57735736", "location": {"id": 12, "url": "https://ll.thespacedevs.com/2.0.0/location/12/", "name": "Cape Canaveral, FL, USA", "country_code": "USA", "map_image": "https://spacelaunchnow-prod-east.nyc3.digitaloceanspaces.com/media/launch_images/location_12_20200803142519.jpg", "total_launch_count": 888, "total_landing_count": 34}, "map_image": "https://spacelaunchnow-prod-east.nyc3.digitaloceanspaces.com/media/launch_images/pad_80_20200803143323.jpg", "total_launch_count": 182}, "webcast_live": false, "image": "https://spacelaunchnow-prod-east.nyc3.digitaloceanspaces.com/media/launch_images/falcon2520925_image_20230503085110.png", "infographic": null, "program": []}, {"id": "4fbbd174-e97e-41e8-8bc5-4e340af00b44", "url": "https://ll.thespacedevs.com/2.0.0/launch/4fbbd174-e97e-41e8-8bc5-4e340af00b44/", "launch_library_id": null, "slug": "kinetica-1-flight-2", "name": "Kinetica 1 | Flight 2", "status": {"id": 1, "name": "Go"}, "net": "2023-06-07T04:12:00Z", "window_end": "2023-06-07T04:24:00Z", "window_start": "2023-06-07T04:01:00Z", "inhold": false, "tbdtime": false, "tbddate": false, "probability": null, "holdreason": "", "failreason": "", "hashtag": null, "launch_service_provider": {"id": 1040, "url": "https://ll.thespacedevs.com/2.0.0/agencies/1040/", "name": "CAS Space", "type": "Commercial"}, "rocket": {"id": 7829, "configuration": {"id": 483, "launch_library_id": null, "url": "https://ll.thespacedevs.com/2.0.0/config/launcher/483/", "name": "Kinetica 1", "family": "Kinetica", "full_name": "Kinetica 1", "variant": ""}}, "mission": {"id": 6391, "launch_library_id": null, "name": "Flight 2", "description": "Will carry 26 different satellites on a ride-share launch mission, including Earth observation satellites, details TBD.", "launch_designator": null, "type": "Earth Science", "orbit": {"id": 17, "name": "Sun-Synchronous Orbit", "abbrev": "SSO"}}, "pad": {"id": 142, "url": "https://ll.thespacedevs.com/2.0.0/pad/142/", "agency_id": null, "name": "Unknown Pad", "info_url": null, "wiki_url": "https://en.wikipedia.org/wiki/Jiuquan_Satellite_Launch_Center", "map_url": "https://www.google.com/maps?q=40.9605556,100.2961393", "latitude": "40.9605556", "longitude": "100.2961393", "location": {"id": 17, "url": "https://ll.thespacedevs.com/2.0.0/location/17/", "name": "Jiuquan, People's Republic of China", "country_code": "CHN", "map_image": "https://spacelaunchnow-prod-east.nyc3.digitaloceanspaces.com/media/launch_images/location_17_20200803142429.jpg", "total_launch_count": 193, "total_landing_count": 0}, "map_image": "https://spacelaunchnow-prod-east.nyc3.digitaloceanspaces.com/media/launch_images/pad_142_20200803143244.jpg", "total_launch_count": 12}, "webcast_live": false, "image": "https://spacelaunchnow-prod-east.nyc3.digitaloceanspaces.com/media/launcher_images/zhongke-1a_image_20220912002218.png", "infographic": null, "program": []}, {"id": "1e0c3a19-02a8-481b-9b7e-1392327c1826", "url": "https://ll.thespacedevs.com/2.0.0/launch/1e0c3a19-02a8-481b-9b7e-1392327c1826/", "launch_library_id": null, "slug": "falcon-9-block-5-transporter-8-dedicated-sso-rides", "name": "Falcon 9 Block 5 | Transporter 8 (Dedicated SSO Rideshare)", "status": {"id": 2, "name": "TBD"}, "net": "2023-06-08T00:00:00Z", "window_end": "2023-06-08T00:00:00Z", "window_start": "2023-06-08T00:00:00Z", "inhold": false, "tbdtime": false, "tbddate": false, "probability": null, "holdreason": "", "failreason": "", "hashtag": null, "launch_service_provider": {"id": 121, "url": "https://ll.thespacedevs.com/2.0.0/agencies/121/", "name": "SpaceX", "type": "Commercial"}, "rocket": {"id": 7527, "configuration": {"id": 164, "launch_library_id": 188, "url": "https://ll.thespacedevs.com/2.0.0/config/launcher/164/", "name": "Falcon 9", "family": "Falcon", "full_name": "Falcon 9 Block 5", "variant": "Block 5"}}, "mission": {"id": 5946, "launch_library_id": null, "name": "Transporter 8 (Dedicated SSO Rideshare)", "description": "Transporter 8 mission is a dedicated rideshare flight to a sun-synchronous orbit with dozens of small microsatellites and nanosatellites for commercial and government customers.", "launch_designator": null, "type": "Dedicated Rideshare", "orbit": {"id": 17, "name": "Sun-Synchronous Orbit", "abbrev": "SSO"}}, "pad": {"id": 16, "url": "https://ll.thespacedevs.com/2.0.0/pad/16/", "agency_id": null, "name": "Space Launch Complex 4E", "info_url": null, "wiki_url": "", "map_url": "https://www.google.com/maps?q=34.632,-120.611", "latitude": "34.632", "longitude": "-120.611", "location": {"id": 11, "url": "https://ll.thespacedevs.com/2.0.0/location/11/", "name": "Vandenberg SFB, CA, USA", "country_code": "USA", "map_image": "https://spacelaunchnow-prod-east.nyc3.digitaloceanspaces.com/media/launch_images/location_11_20200803142416.jpg", "total_launch_count": 720, "total_landing_count": 10}, "map_image": "https://spacelaunchnow-prod-east.nyc3.digitaloceanspaces.com/media/launch_images/pad_16_20200803143532.jpg", "total_launch_count": 111}, "webcast_live": false, "image": "https://spacelaunchnow-prod-east.nyc3.digitaloceanspaces.com/media/launcher_images/falcon_9_block__image_20210506060831.jpg", "infographic": null, "program": []}, {"id": "e3f8e755-0867-413a-a05a-15ca06ce7fa3", "url": "https://ll.thespacedevs.com/2.0.0/launch/e3f8e755-0867-413a-a05a-15ca06ce7fa3/", "launch_library_id": null, "slug": "ariane-5-eca-syracuse-4b-heinrich-hertz-h2sat", "name": "Ariane 5 ECA+ | Syracuse 4B & Heinrich Hertz (H2Sat)", "status": {"id": 2, "name": "TBD"}, "net": "2023-06-16T21:16:00Z", "window_end": "2023-06-16T23:01:00Z", "window_start": "2023-06-16T21:16:00Z", "inhold": false, "tbdtime": false, "tbddate": false, "probability": null, "holdreason": "", "failreason": "", "hashtag": null, "launch_service_provider": {"id": 115, "url": "https://ll.thespacedevs.com/2.0.0/agencies/115/", "name": "Arianespace", "type": "Commercial"}, "rocket": {"id": 7603, "configuration": {"id": 215, "launch_library_id": 246, "url": "https://ll.thespacedevs.com/2.0.0/config/launcher/215/", "name": "Ariane 5 ECA+", "family": "Ariane 5", "full_name": "Ariane 5 ECA+", "variant": "ECA+"}}, "mission": {"id": 6078, "launch_library_id": null, "name": "Syracuse 4B & Heinrich Hertz (H2Sat)", "description": "Syracuse 4B is a French military communications satellite built by Thales Alenia Space. Heinrich Hertz (H2Sat)  is a small geostationary communications satellite built by OHB System and the German Aerospace Center (DLR) to explore and test new broadband communications technologies.", "launch_designator": null, "type": "Communications", "orbit": {"id": 2, "name": "Geostationary Transfer Orbit", "abbrev": "GTO"}}, "pad": {"id": 77, "url": "https://ll.thespacedevs.com/2.0.0/pad/77/", "agency_id": null, "name": "Ariane Launch Area 3", "info_url": null, "wiki_url": "http://en.wikipedia.org/wiki/ELA-3", "map_url": "https://www.google.com/maps?q=5.239,-52.768", "latitude": "5.239", "longitude": "-52.768", "location": {"id": 13, "url": "https://ll.thespacedevs.com/2.0.0/location/13/", "name": "Kourou, French Guiana", "country_code": "GUF", "map_image": "https://spacelaunchnow-prod-east.nyc3.digitaloceanspaces.com/media/launch_images/location_13_20200803142412.jpg", "total_launch_count": 318, "total_landing_count": 0}, "map_image": "https://spacelaunchnow-prod-east.nyc3.digitaloceanspaces.com/media/launch_images/pad_77_20200803143458.jpg", "total_launch_count": 117}, "webcast_live": false, "image": "https://spacelaunchnow-prod-east.nyc3.digitaloceanspaces.com/media/launcher_images/ariane_5_eca25_image_20200220090552.jpeg", "infographic": null, "program": []}, {"id": "76e42f7b-6690-41be-95c1-811aab0ccf32", "url": "https://ll.thespacedevs.com/2.0.0/launch/76e42f7b-6690-41be-95c1-811aab0ccf32/", "launch_library_id": null, "slug": "falcon-9-block-5-satria-1", "name": "Falcon 9 Block 5 | Satria-1", "status": {"id": 2, "name": "TBD"}, "net": "2023-06-19T00:00:00Z", "window_end": "2023-06-19T00:00:00Z", "window_start": "2023-06-19T00:00:00Z", "inhold": false, "tbdtime": false, "tbddate": false, "probability": null, "holdreason": "", "failreason": "", "hashtag": null, "launch_service_provider": {"id": 121, "url": "https://ll.thespacedevs.com/2.0.0/agencies/121/", "name": "SpaceX", "type": "Commercial"}, "rocket": {"id": 7696, "configuration": {"id": 164, "launch_library_id": 188, "url": "https://ll.thespacedevs.com/2.0.0/config/launcher/164/", "name": "Falcon 9", "family": "Falcon", "full_name": "Falcon 9 Block 5", "variant": "Block 5"}}, "mission": {"id": 6212, "launch_library_id": null, "name": "Satria-1", "description": "Indonesian geostationary communications satellite", "launch_designator": null, "type": "Communications", "orbit": {"id": 2, "name": "Geostationary Transfer Orbit", "abbrev": "GTO"}}, "pad": {"id": 80, "url": "https://ll.thespacedevs.com/2.0.0/pad/80/", "agency_id": 121, "name": "Space Launch Complex 40", "info_url": null, "wiki_url": "https://en.wikipedia.org/wiki/Cape_Canaveral_Air_Force_Station_Space_Launch_Complex_40", "map_url": "https://www.google.com/maps?q=28.56194122,-80.57735736", "latitude": "28.56194122", "longitude": "-80.57735736", "location": {"id": 12, "url": "https://ll.thespacedevs.com/2.0.0/location/12/", "name": "Cape Canaveral, FL, USA", "country_code": "USA", "map_image": "https://spacelaunchnow-prod-east.nyc3.digitaloceanspaces.com/media/launch_images/location_12_20200803142519.jpg", "total_launch_count": 888, "total_landing_count": 34}, "map_image": "https://spacelaunchnow-prod-east.nyc3.digitaloceanspaces.com/media/launch_images/pad_80_20200803143323.jpg", "total_launch_count": 182}, "webcast_live": false, "image": "https://spacelaunchnow-prod-east.nyc3.digitaloceanspaces.com/media/launcher_images/falcon_9_block__image_20210506060831.jpg", "infographic": null, "program": []}, {"id": "8cfa00a5-a72e-48b7-80bd-944664688f59", "url": "https://ll.thespacedevs.com/2.0.0/launch/8cfa00a5-a72e-48b7-80bd-944664688f59/", "launch_library_id": 1976, "slug": "delta-iv-heavy-nrol-68", "name": "Delta IV Heavy | NROL-68", "status": {"id": 2, "name": "TBD"}, "net": "2023-06-21T00:00:00Z", "window_end": "2023-06-21T00:00:00Z", "window_start": "2023-06-21T00:00:00Z", "inhold": false, "tbdtime": false, "tbddate": false, "probability": -1, "holdreason": "", "failreason": "", "hashtag": null, "launch_service_provider": {"id": 124, "url": "https://ll.thespacedevs.com/2.0.0/agencies/124/", "name": "United Launch Alliance", "type": "Commercial"}, "rocket": {"id": 2533, "configuration": {"id": 21, "launch_library_id": 21, "url": "https://ll.thespacedevs.com/2.0.0/config/launcher/21/", "name": "Delta IV Heavy", "family": "Delta", "full_name": "Delta IV Heavy", "variant": "Heavy"}}, "mission": {"id": 6167, "launch_library_id": null, "name": "NROL-68", "description": "Classified payload for the National Reconnaissance Office.", "launch_designator": null, "type": "Government/Top Secret", "orbit": {"id": 25, "name": "Unknown", "abbrev": "N/A"}}, "pad": {"id": 38, "url": "https://ll.thespacedevs.com/2.0.0/pad/38/", "agency_id": null, "name": "Space Launch Complex 37B", "info_url": null, "wiki_url": "https://en.wikipedia.org/wiki/Cape_Canaveral_Air_Force_Station_Space_Launch_Complex_37", "map_url": "https://www.google.com/maps?q=28.5317,-80.56495", "latitude": "28.5317", "longitude": "-80.56495", "location": {"id": 12, "url": "https://ll.thespacedevs.com/2.0.0/location/12/", "name": "Cape Canaveral, FL, USA", "country_code": "USA", "map_image": "https://spacelaunchnow-prod-east.nyc3.digitaloceanspaces.com/media/launch_images/location_12_20200803142519.jpg", "total_launch_count": 888, "total_landing_count": 34}, "map_image": "https://spacelaunchnow-prod-east.nyc3.digitaloceanspaces.com/media/launch_images/pad_38_20200803143515.jpg", "total_launch_count": 38}, "webcast_live": false, "image": "https://spacelaunchnow-prod-east.nyc3.digitaloceanspaces.com/media/launcher_images/delta_iv_heavy_image_20210426103838.jpg", "infographic": null, "program": []}, {"id": "6e5725b3-d0e9-4484-9d79-514fe8b978be", "url": "https://ll.thespacedevs.com/2.0.0/launch/6e5725b3-d0e9-4484-9d79-514fe8b978be/", "launch_library_id": 1955, "slug": "soyuz-21bfregat-m-meteor-m-no2-3", "name": "Soyuz 2.1b/Fregat-M | Meteor-M No.2-3", "status": {"id": 2, "name": "TBD"}, "net": "2023-06-27T11:34:00Z", "window_end": "2023-06-27T11:34:00Z", "window_start": "2023-06-27T11:34:00Z", "inhold": false, "tbdtime": false, "tbddate": false, "probability": -1, "holdreason": "", "failreason": "", "hashtag": null, "launch_service_provider": {"id": 63, "url": "https://ll.thespacedevs.com/2.0.0/agencies/63/", "name": "Russian Federal Space Agency (ROSCOSMOS)", "type": "Government"}, "rocket": {"id": 2510, "configuration": {"id": 134, "launch_library_id": 153, "url": "https://ll.thespacedevs.com/2.0.0/config/launcher/134/", "name": "Soyuz 2.1b/Fregat-M", "family": "Soyuz", "full_name": "Soyuz 2.1b Fregat-M", "variant": "Fregat-M"}}, "mission": {"id": 6317, "launch_library_id": null, "name": "Meteor-M No.2-3", "description": "Meteor-M satellites are a new generation of Russian meteorological satellites to replace the Meteor-3M series. The first two Meteor-M satellites will feature following instruments:\r\n\r\n- MSU-MR - Low-resolution Multispectral Scanner for global and regional for cloud cover mapping\r\n- KMSS-2 - multichannel scanning unit for Earth surface monitoring\r\n- MTVZA-GYa - imager/sounder for Atmospheric temperature and humidity profiles, sea surface wind\r\n- IKFS-2 advanced IR sounder for Atmospheric temperature and humidity profiles\r\n- BRK SSPD - Data Collection System\r\n- RK-SM-MKA - Modified Rescue Radio complex\r\n\r\nOne initial Meteor-M 1 satellite was built, followed by the improved Meteor-M 2 series satellites.", "launch_designator": null, "type": "Earth Science", "orbit": {"id": 17, "name": "Sun-Synchronous Orbit", "abbrev": "SSO"}}, "pad": {"id": 83, "url": "https://ll.thespacedevs.com/2.0.0/pad/83/", "agency_id": 63, "name": "Cosmodrome Site 1S", "info_url": null, "wiki_url": "https://en.wikipedia.org/wiki/Vostochny_Cosmodrome", "map_url": "https://www.google.com/maps?q=51.884395,128.333932", "latitude": "51.884395", "longitude": "128.333932", "location": {"id": 18, "url": "https://ll.thespacedevs.com/2.0.0/location/18/", "name": "Vostochny Cosmodrome, Siberia, Russian Federation", "country_code": "RUS", "map_image": "https://spacelaunchnow-prod-east.nyc3.digitaloceanspaces.com/media/launch_images/location_18_20200803142401.jpg", "total_launch_count": 13, "total_landing_count": 0}, "map_image": "https://spacelaunchnow-prod-east.nyc3.digitaloceanspaces.com/media/launch_images/pad_83_20200803143544.jpg", "total_launch_count": 13}, "webcast_live": false, "image": "https://spacelaunchnow-prod-east.nyc3.digitaloceanspaces.com/media/launcher_images/soyuz25202.1b_image_20190520165337.jpg", "infographic": null, "program": []}, {"id": "09642682-60f3-4470-a802-18788601c5a5", "url": "https://ll.thespacedevs.com/2.0.0/launch/09642682-60f3-4470-a802-18788601c5a5/", "launch_library_id": null, "slug": "falcon-9-block-5-starlink-group-6-10", "name": "Falcon 9 Block 5 | Starlink Group 6-10", "status": {"id": 2, "name": "TBD"}, "net": "2023-06-30T00:00:00Z", "window_end": "2023-06-30T00:00:00Z", "window_start": "2023-06-30T00:00:00Z", "inhold": false, "tbdtime": false, "tbddate": false, "probability": null, "holdreason": "", "failreason": "", "hashtag": null, "launch_service_provider": {"id": 121, "url": "https://ll.thespacedevs.com/2.0.0/agencies/121/", "name": "SpaceX", "type": "Commercial"}, "rocket": {"id": 7863, "configuration": {"id": 164, "launch_library_id": 188, "url": "https://ll.thespacedevs.com/2.0.0/config/launcher/164/", "name": "Falcon 9", "family": "Falcon", "full_name": "Falcon 9 Block 5", "variant": "Block 5"}}, "mission": {"id": 6371, "launch_library_id": null, "name": "Starlink Group 6-10", "description": "A batch of satellites for the Starlink mega-constellation - SpaceX's project for space-based Internet communication system.", "launch_designator": null, "type": "Communications", "orbit": {"id": 8, "name": "Low Earth Orbit", "abbrev": "LEO"}}, "pad": {"id": 72, "url": "https://ll.thespacedevs.com/2.0.0/pad/72/", "agency_id": null, "name": "Unknown Pad", "info_url": null, "wiki_url": "", "map_url": "https://www.google.com/maps?q=28.458,-80.528", "latitude": "28.458", "longitude": "-80.528", "location": {"id": 12, "url": "https://ll.thespacedevs.com/2.0.0/location/12/", "name": "Cape Canaveral, FL, USA", "country_code": "USA", "map_image": "https://spacelaunchnow-prod-east.nyc3.digitaloceanspaces.com/media/launch_images/location_12_20200803142519.jpg", "total_launch_count": 888, "total_landing_count": 34}, "map_image": "https://spacelaunchnow-prod-east.nyc3.digitaloceanspaces.com/media/launch_images/pad_72_20200803143403.jpg", "total_launch_count": 0}, "webcast_live": false, "image": "https://spacelaunchnow-prod-east.nyc3.digitaloceanspaces.com/media/launch_images/falcon2520925_image_20230522082449.png", "infographic": null, "program": []}, {"id": "12e9acca-5aee-4751-9083-5e205d9528c8", "url": "https://ll.thespacedevs.com/2.0.0/launch/12e9acca-5aee-4751-9083-5e205d9528c8/", "launch_library_id": null, "slug": "falcon-9-block-5-starlink-group-6-9", "name": "Falcon 9 Block 5 | Starlink Group 6-9", "status": {"id": 2, "name": "TBD"}, "net": "2023-06-30T00:00:00Z", "window_end": "2023-06-30T00:00:00Z", "window_start": "2023-06-30T00:00:00Z", "inhold": false, "tbdtime": false, "tbddate": false, "probability": null, "holdreason": "", "failreason": "", "hashtag": null, "launch_service_provider": {"id": 121, "url": "https://ll.thespacedevs.com/2.0.0/agencies/121/", "name": "SpaceX", "type": "Commercial"}, "rocket": {"id": 7847, "configuration": {"id": 164, "launch_library_id": 188, "url": "https://ll.thespacedevs.com/2.0.0/config/launcher/164/", "name": "Falcon 9", "family": "Falcon", "full_name": "Falcon 9 Block 5", "variant": "Block 5"}}, "mission": {"id": 6354, "launch_library_id": null, "name": "Starlink Group 6-9", "description": "A batch of satellites for the Starlink mega-constellation - SpaceX's project for space-based Internet communication system.", "launch_designator": null, "type": "Communications", "orbit": {"id": 8, "name": "Low Earth Orbit", "abbrev": "LEO"}}, "pad": {"id": 72, "url": "https://ll.thespacedevs.com/2.0.0/pad/72/", "agency_id": null, "name": "Unknown Pad", "info_url": null, "wiki_url": "", "map_url": "https://www.google.com/maps?q=28.458,-80.528", "latitude": "28.458", "longitude": "-80.528", "location": {"id": 12, "url": "https://ll.thespacedevs.com/2.0.0/location/12/", "name": "Cape Canaveral, FL, USA", "country_code": "USA", "map_image": "https://spacelaunchnow-prod-east.nyc3.digitaloceanspaces.com/media/launch_images/location_12_20200803142519.jpg", "total_launch_count": 888, "total_landing_count": 34}, "map_image": "https://spacelaunchnow-prod-east.nyc3.digitaloceanspaces.com/media/launch_images/pad_72_20200803143403.jpg", "total_launch_count": 0}, "webcast_live": false, "image": "https://spacelaunchnow-prod-east.nyc3.digitaloceanspaces.com/media/launch_images/falcon2520925_image_20230503090440.png", "infographic": null, "program": []}]}